{
    "page": 1,
    "total_results": 2877,
    "total_pages": 144,
    "results": [
                {
                "vote_count": 2374,
                "id": 284054,
                "video": false,
                "vote_average": 7.4,
                "title": "Black Panther",
                "popularity": 256.507772,
                "poster_path": "/uxzzxijgPIY7slzFvMotPv8wjKA.jpg",
                "original_language": "en",
                "original_title": "Black Panther",
                "genre_ids": [
                              28,
                              12,
                              14,
                              878
                              ],
                "backdrop_path": "/b6ZJZHUdMEFECvGiDpJjlfUWela.jpg",
                "adult": false,
                "overview": "After the events of Captain America: Civil War, King T'Challa returns home to the reclusive, technologically advanced African nation of Wakanda to serve as his country's new leader. However, T'Challa soon finds that he is challenged for the throne from factions within his own country. When two foes conspire to destroy Wakanda, the hero known as Black Panther must team up with C.I.A. agent Everett K. Ross and members of the Dora Milaje, Wakandan special forces, to prevent Wakanda from being dragged into a world war.",
                "release_date": "2018-02-13"
                },
                {
                "vote_count": 771,
                "id": 337167,
                "video": false,
                "vote_average": 6.3,
                "title": "Fifty Shades Freed",
                "popularity": 159.442397,
                "poster_path": "/jjPJ4s3DWZZvI4vw8Xfi4Vqa1Q8.jpg",
                "original_language": "en",
                "original_title": "Fifty Shades Freed",
                "genre_ids": [
                              18,
                              10749
                              ],
                "backdrop_path": "/9ywA15OAiwjSTvg3cBs9B7kOCBF.jpg",
                "adult": false,
                "overview": "Believing they have left behind shadowy figures from their past, newlyweds Christian and Ana fully embrace an inextricable connection and shared life of luxury. But just as she steps into her role as Mrs. Grey and he relaxes into an unfamiliar stability, new threats could jeopardize their happy ending before it even begins.",
                "release_date": "2018-02-07"
                },
                {
                "vote_count": 83,
                "id": 471474,
                "video": false,
                "vote_average": 6.8,
                "title": "Batman: Gotham by Gaslight",
                "popularity": 75.192874,
                "poster_path": "/7souLi5zqQCnpZVghaXv0Wowi0y.jpg",
                "original_language": "en",
                "original_title": "Batman: Gotham by Gaslight",
                "genre_ids": [
                              53,
                              28,
                              16,
                              878
                              ],
                "backdrop_path": "/9ojJB7vZR2uDqXdxOzYaADthEBT.jpg",
                "adult": false,
                "overview": "In an alternative Victorian Age Gotham City, Batman begins his war on crime while he investigates a new series of murders by Jack the Ripper.",
                "release_date": "2018-01-12"
                },
                {
                "vote_count": 866,
                "id": 336843,
                "video": false,
                "vote_average": 7.3,
                "title": "Maze Runner: The Death Cure",
                "popularity": 73.997358,
                "poster_path": "/7GgZ6DGezkh3szFdvskH5XD4V0t.jpg",
                "original_language": "en",
                "original_title": "Maze Runner: The Death Cure",
                "genre_ids": [
                              28,
                              9648,
                              878,
                              53
                              ],
                "backdrop_path": "/bvbyidkMaBls1LTaIWYY6UmYTaL.jpg",
                "adult": false,
                "overview": "Thomas leads his group of escaped Gladers on their final and most dangerous mission yet. To save their friends, they must break into the legendary Last City, a WCKD-controlled labyrinth that may turn out to be the deadliest maze of all. Anyone who makes it out alive will get answers to the questions the Gladers have been asking since they first arrived in the maze.",
                "release_date": "2018-01-17"
                },
                {
                "vote_count": 140,
                "id": 401981,
                "video": false,
                "vote_average": 6.7,
                "title": "Red Sparrow",
                "popularity": 72.697467,
                "poster_path": "/uZwnaMQTdwZz1kwtrrU3IOqxnDu.jpg",
                "original_language": "en",
                "original_title": "Red Sparrow",
                "genre_ids": [
                              9648,
                              53
                              ],
                "backdrop_path": "/sGzuQYSTwJvLBc2PnuSVLHhuFeh.jpg",
                "adult": false,
                "overview": "Prima ballerina Dominika Egorova faces a bleak and uncertain future after she suffers an injury that ends her career. She soon turns to Sparrow School, a secret intelligence service that trains exceptional young people to use their minds and bodies as weapons. Egorova emerges as the most dangerous Sparrow after completing the sadistic training process. As she comes to terms with her new abilities, Dominika meets a CIA agent who tries to convince her that he is the only person she can trust.",
                "release_date": "2018-03-01"
                },
                {
                "vote_count": 12,
                "id": 484862,
                "video": false,
                "vote_average": 6.7,
                "title": "Scooby-Doo! & Batman: The Brave and the Bold",
                "popularity": 63.516624,
                "poster_path": "/hSPeF1zoYH8kCOhFMu7x3B55zu6.jpg",
                "original_language": "en",
                "original_title": "Scooby-Doo! & Batman: The Brave and the Bold",
                "genre_ids": [
                              16
                              ],
                "backdrop_path": "/jzJGD1aWW7ls6KCCRDIGP7MfdJk.jpg",
                "adult": false,
                "overview": "Batman teams up with the Scooby gang when villains from both of their worlds unite to wreak havoc on the city. Featuring classic DC villains like the Joker, Catwoman, Harley Quinn and the Riddler alongside heroes like Aquaman, Black Canary, and Plastic Man. Also featuring classic Scooby-Doo villains like the Ghost Clown, Space Kook, and Miner 49er.",
                "release_date": "2018-01-09"
                },
                {
                "vote_count": 239,
                "id": 485774,
                "video": false,
                "vote_average": 3.6,
                "title": "The Open House",
                "popularity": 49.836557,
                "poster_path": "/7JwdoLcbFWaeUBxKaoFulRVK8Ja.jpg",
                "original_language": "en",
                "original_title": "The Open House",
                "genre_ids": [
                              53
                              ],
                "backdrop_path": "/trTplslE5m0pfxdQq3qHJrLHupi.jpg",
                "adult": false,
                "overview": "A teenager and his mother find themselves besieged by threatening forces when they move into a new house.",
                "release_date": "2018-01-19"
                },
                {
                "vote_count": 22,
                "id": 395990,
                "video": false,
                "vote_average": 4.4,
                "title": "Death Wish",
                "popularity": 37.732752,
                "poster_path": "/zRpOwIlOXZZVWgDernbPbdHU5cl.jpg",
                "original_language": "en",
                "original_title": "Death Wish",
                "genre_ids": [
                              28,
                              80,
                              18,
                              53
                              ],
                "backdrop_path": "/g1ovo0YhL9FcZmgoW4Fx6F4x1e6.jpg",
                "adult": false,
                "overview": "A mild-mannered father is transformed into a killing machine after his family is torn apart by a violent act.",
                "release_date": "2018-03-02"
                },
                {
                "vote_count": 69,
                "id": 445571,
                "video": false,
                "vote_average": 7.5,
                "title": "Game Night",
                "popularity": 35.993794,
                "poster_path": "/1wS89vns6cseCn4UHSqj97xKEKW.jpg",
                "original_language": "en",
                "original_title": "Game Night",
                "genre_ids": [
                              9648,
                              35,
                              80,
                              28
                              ],
                "backdrop_path": "/jknYekTVH1n7doNVj5wiCMKhx7u.jpg",
                "adult": false,
                "overview": "A group of friends who meet regularly for game nights find themselves trying to solve a murder mystery.",
                "release_date": "2018-02-22"
                },
                {
                "vote_count": 101,
                "id": 431072,
                "video": false,
                "vote_average": 6.1,
                "title": "Step Sisters",
                "popularity": 35.655474,
                "poster_path": "/f2LW5nTH6MUynBExIMvpEHEK6LA.jpg",
                "original_language": "en",
                "original_title": "Step Sisters",
                "genre_ids": [
                              35
                              ],
                "backdrop_path": "/eOLpbDq5Z0kSzUau0cGdVn94DsP.jpg",
                "adult": false,
                "overview": "Jamilah has her whole life figured out. She's the president of her black sorority, captain of their champion step dance crew, is student liaison to the college dean, and her next move is on to Harvard Law School. She's got it all, right? But when the hard-partying white girls from Sigma Beta Beta embarrass the school, Jamilah is ordered to come to the rescue. Her mission is to not only teach the rhythmically-challenged girls how to step dance, but to win the Steptacular, the most competitive of dance competitions. With the SBBs reputations and charter on the line, and Jamilah's dream of attending Harvard in jeopardy, these outcast screw-ups and their unlikely teacher stumble through one hilarious misstep after another. Cultures clash, romance blossoms, and sisterhood prevails as everyone steps out of their comfort zones.",
                "release_date": "2018-01-19"
                },
                {
                "vote_count": 682,
                "id": 384521,
                "video": false,
                "vote_average": 5.8,
                "title": "The Cloverfield Paradox",
                "popularity": 33.316291,
                "poster_path": "/gfxPTyeG9HescyS3EAcMM0VxNg6.jpg",
                "original_language": "en",
                "original_title": "The Cloverfield Paradox",
                "genre_ids": [
                              9648,
                              53,
                              27,
                              878
                              ],
                "backdrop_path": "/2cnUCcNmmj79hGmimvWlUo5P2K8.jpg",
                "adult": false,
                "overview": "Orbiting above a planet on the brink of war, scientists test a device to solve an energy crisis and end up face-to-face with a dark alternate reality.",
                "release_date": "2018-02-04"
                },
                {
                "vote_count": 0,
                "id": 299536,
                "video": false,
                "vote_average": 0,
                "title": "Avengers: Infinity War",
                "popularity": 32.951647,
                "poster_path": "/yUfulggthk8W3ywF2H4jPHJyoJp.jpg",
                "original_language": "en",
                "original_title": "Avengers: Infinity War",
                "genre_ids": [
                              12,
                              878,
                              14,
                              28
                              ],
                "backdrop_path": "/j3OjLcOpDsGF3j6f8Myyra5Bq62.jpg",
                "adult": false,
                "overview": "As the Avengers and their allies have continued to protect the world from threats too large for any one hero to handle, a new danger has emerged from the cosmic shadows: Thanos. A despot of intergalactic infamy, his goal is to collect all six Infinity Stones, artifacts of unimaginable power, and use them to inflict his twisted will on all of reality. Everything the Avengers have fought for has led up to this moment - the fate of Earth and existence itself has never been more uncertain.",
                "release_date": "2018-04-25"
                },
                {
                "vote_count": 1,
                "id": 499772,
                "video": false,
                "vote_average": 1,
                "title": "Meet Me In St. Gallen",
                "popularity": 32.683851,
                "poster_path": "/uGntNjUx6YAzbVy7RDgxWnWsdet.jpg",
                "original_language": "tl",
                "original_title": "Meet Me In St. Gallen",
                "genre_ids": [
                              18,
                              10749
                              ],
                "backdrop_path": "/4QrbczSQGZQA7BG9xMhccQI7LHm.jpg",
                "adult": false,
                "overview": "The story of Jesse and Celeste who meets at an unexpected time in their lives. They then realize their names are the same as the characters in the popular break-up romantic comedy, Celeste and Jesse Forever.",
                "release_date": "2018-02-07"
                },
                {
                "vote_count": 2,
                "id": 504997,
                "video": false,
                "vote_average": 6,
                "title": "Lego DC Comics Super Heroes: The Flash",
                "popularity": 31.306136,
                "poster_path": "/peKFgffHTs6gzDgAWOjIfxziLbQ.jpg",
                "original_language": "en",
                "original_title": "Lego DC Comics Super Heroes: The Flash",
                "genre_ids": [
                              12,
                              16,
                              35,
                              10751,
                              878
                              ],
                "backdrop_path": "/5ppoh1NTxMjDyHmaxnIj4SNxO6c.jpg",
                "adult": false,
                "overview": "In LEGO DC Super Heroes: The Flash, Reverse-Flash manipulates the Speed Force to put the Flash into a time loop that forces him to relive the same day over and over again—with progressively disastrous results, including losing his powers and being fired by the Justice League. The Flash must find a way to restore time to its original path and finally apprehend his worst enemy before all is lost for the Flash…and the world!",
                "release_date": "2018-02-13"
                },
                {
                "vote_count": 109,
                "id": 300668,
                "video": false,
                "vote_average": 5.7,
                "title": "Annihilation",
                "popularity": 31.229372,
                "poster_path": "/d3qcpfNwbAMCNqWDHzPQsUYiUgS.jpg",
                "original_language": "en",
                "original_title": "Annihilation",
                "genre_ids": [
                              9648,
                              12,
                              878,
                              53,
                              27
                              ],
                "backdrop_path": "/9jbCnVw5d4OdBhsrYIMwOcxaKQa.jpg",
                "adult": false,
                "overview": "A biologist signs up for a dangerous, secret expedition into a mysterious zone where the laws of nature don't apply.",
                "release_date": "2018-02-22"
                },
                {
                "vote_count": 386,
                "id": 433310,
                "video": false,
                "vote_average": 6.7,
                "title": "When We First Met",
                "popularity": 29.993934,
                "poster_path": "/pscQKoikkSJxAu8O5LKtjgGJEt1.jpg",
                "original_language": "en",
                "original_title": "When We First Met",
                "genre_ids": [
                              35
                              ],
                "backdrop_path": "/3XyHJfsb4cUAxekfQCUkrcu3UmL.jpg",
                "adult": false,
                "overview": "Noah spends the perfect first night with the girl of his dreams Avery but gets relegated to the friend zone. He spends the next three years wondering what went wrong - until he gets the unexpected chance to travel back in time and alter that night, and his fate, over and over again.",
                "release_date": "2018-02-09"
                },
                {
                "vote_count": 1,
                "id": 407451,
                "video": false,
                "vote_average": 0,
                "title": "A Wrinkle in Time",
                "popularity": 29.349639,
                "poster_path": "/rSb6B7pwiZbW7In6juYEYjZ4Bsw.jpg",
                "original_language": "en",
                "original_title": "A Wrinkle in Time",
                "genre_ids": [
                              12,
                              878,
                              10751,
                              14
                              ],
                "backdrop_path": "/zqUaMojohr96itJYCE3W1NauTn7.jpg",
                "adult": false,
                "overview": "After the disappearance of her scientist father, three peculiar beings send Meg, her brother, and her friend to space in order to find him.",
                "release_date": "2018-03-08"
                },
                {
                "vote_count": 51,
                "id": 391710,
                "video": false,
                "vote_average": 7,
                "title": "A Futile and Stupid Gesture",
                "popularity": 28.965542,
                "poster_path": "/uBWxqOR0eLR5Ih0orHgjN79sEeK.jpg",
                "original_language": "en",
                "original_title": "A Futile and Stupid Gesture",
                "genre_ids": [
                              35
                              ],
                "backdrop_path": "/tWp1P6tGWSMJfmOZxs65SNV0khX.jpg",
                "adult": false,
                "overview": "The National Lampoon name became globally recognized after the monumental success of Animal House—but before the glory days, it was a scrappy yet divinely subversive magazine and radio show that introduced the world to comedic geniuses like Bill Murray, Chevy Chase, John Belushi, and Gilda Radner. The driving force behind National Lampoon was Doug Kenney (Will Forte), and his truly wild and crazy story unfolds in A Futile and Stupid Gesture from Harvard to Hollywood to Caddyshack and beyond.",
                "release_date": "2018-01-24"
                },
                {
                "vote_count": 54,
                "id": 459910,
                "video": false,
                "vote_average": 6.2,
                "title": "Braven",
                "popularity": 27.878099,
                "poster_path": "/253Bw5I3Zj3e2thCThjO7byEUCL.jpg",
                "original_language": "en",
                "original_title": "Braven",
                "genre_ids": [
                              18,
                              28
                              ],
                "backdrop_path": "/uIWnlqVAQWkVXyW1mjsrlvoCItt.jpg",
                "adult": false,
                "overview": "A logger defends his family from a group of dangerous drug runners.",
                "release_date": "2018-02-01"
                },
                {
                "vote_count": 2,
                "id": 353066,
                "video": false,
                "vote_average": 7,
                "title": "The Vanishing of Sidney Hall",
                "popularity": 26.612139,
                "poster_path": "/e8SJJEliAK9g0EG5agPsbxWoWoI.jpg",
                "original_language": "en",
                "original_title": "The Vanishing of Sidney Hall",
                "genre_ids": [
                              18,
                              9648
                              ],
                "backdrop_path": "/n1YXO1ugzgSHABbG6amPpzm4OlI.jpg",
                "adult": false,
                "overview": "Over the course of 12 years, and three stages of life, Sidney Hall falls in love, writes the book of a generation and then disappears without a trace.",
                "release_date": "2018-03-02"
                }
                ]
}
